{
    "/js/HoSoNLD.js": "/js/HoSoNLD.js",
    "/js/HoSoTTThuHo.js": "/js/HoSoTTThuHo.js",
    "/js/LuongNhanVien.js": "/js/LuongNhanVien.js",
    "/js/app.js": "/js/app.js",
    "/css/app.css": "/css/app.css",
    "/js/tcnn.js": "/js/tcnn.js"
}
